{
    "id":"nexerelin", # internal id
    "name":"Nexerelin", # displayed to the player
    "author":"Zaphide, forked by Histidine",
    "version":"0.5.2",
    "description":"Choose your banner and fight for supremacy of sector (n)Exerelin!",
    "gameVersion":"0.65.2a-RC2",
    "totalConversion":"false",
    "jars":["jars/ExerelinCore.jar", "jars/Omnifactory.jar"],
    "modPlugin":"data.scripts.ExerelinModPlugin",
    "replace":
    [
    # comment out to use Corvus mode, uncomment to turn it off (MANDATORY)
    # NOTE: you need to edit exerelin_config.json as well
        "data/campaign/econ/economy.json",
    ],
}
