{
    "uniqueModClassName":"", # String
    "playableFaction":"false", # Boolean

    "crewExpereinceLevelIncreaseChance":0.0, # Double, 0 - 1.0
    "baseFleetCostMultiplier":1.0, # Double

    "customRebelFaction":"", # String
    "customRebelFleetId":"", # String
    "rebelFleetSuffix":"Rebels", # String

    "asteroidMiningFleetName":"Mining Fleet", # String
    "gasMiningFleetName":"Gas Fleet", # String
    "logisticsFleetName":"Logistics Convoy", # String
    "invasionFleetName":"Invasion Fleet", # String
    "commandFleetName":"Command Fleet", # String

    "positiveDiplomacyExtra":0, # Integer
    "negativeDiplomacyExtra":0, # Integer
    "factionsLiked":[], # String array
    "factionsDisliked":[], # String array
    
    "alignments":{
	"diplomatic":0.5,
    },
}
