{
    "uniqueModClassName":"data.scripts.NGOModPlugin", # String
    "playableFaction":"true", # Boolean
    "isPirateNeutral":"false", # Boolean
    "spawnPiratesAndMercs":"false",

    "crewExpereinceLevelIncreaseChance":0.0, # Double, 0 - 1.0
    "baseFleetCostMultiplier":1.0, # Double

    "customRebelFaction":"", # String
    "customRebelFleetId":"", # String
    "rebelFleetSuffix":"Splinter Group", # String

    "asteroidMiningFleetName":"Mining Fleet", # String
    "gasMiningFleetName":"Gas Fleet", # String
    "logisticsFleetName":"Logistics Fleet", # String
    "invasionFleetName":"Invasion Fleet", # String
    "responseFleetName":"Revenge Fleet",
    "invasionSupportFleetName":"Strike Fleet", # String
    "defenceFleetName":"Guard Fleet",

    "positiveDiplomacyExtra":0, # Integer
    "negativeDiplomacyExtra":0, # Integer
    "factionsLiked":["interstellarimperium","independent"], # String array
    "factionsDisliked":["pack","hegemony","pirates","luddic_church"], # String array
    
    "alignments":{
        "militarist":1,
        "ideological":0.5,
    },

    #"invasionStrengthBonusAttack":0.1,
    #"invasionStrengthBonusDefend":0.125,
    #"invasionFleetSizeMod":0.1,
    #"responseFleetSizeMod":0.125,
}
