{
    "uniqueModClassName":"data.scripts.PTechPlugin", # String
    "playableFaction":"true", # Boolean
    "isPirateNeutral":"true", # Boolean

    "crewExpereinceLevelIncreaseChance":0.4, # Double, 0 - 1.0
    "baseFleetCostMultiplier":1.3, # Double

    "customRebelFaction":"", # String
    "customRebelFleetId":"", # String
    "rebelFleetSuffix":"Fascists", # String

    "asteroidMiningFleetName":"Astrominers", # String
    "gasMiningFleetName":"Nebula Miners", # String
    "logisticsFleetName":"Humanitarian Aide", # String
    "invasionFleetName":"Pacifier", # String
    "commandFleetName":"Command Hub", # String

    "positiveDiplomacyExtra":0, # Integer
    "negativeDiplomacyExtra":0, # Integer
    "factionsLiked":["blackrock_driveyards", "neutrinocorp", "pirates", "oculus"], # String array
    "factionsDisliked":["player_npc", "sindrian_diktat", "templars", "interstellarimperium", "patnavy"], # String array

	"alignments":{
		"technocratic":0.5,
		"militarist":0.5,
		"corporate":0.25,
	},
	
    #"miningVariantsOrWings":["pt_sandoval_standard", "pt_porcelain_standard"], # String array
}